<svg width="18" height="15" viewBox="0 0 18 15" fill="none" xmlns="http://www.w3.org/2000/svg">
<path d="M7.05882 15V9.70588H10.5882V15H15V7.94118H17.6471L8.82353 0L0 7.94118H2.64706V15H7.05882Z" fill="#A3A3A3"/>
</svg>
