<svg width="231" height="221" viewBox="0 0 231 221" fill="none" xmlns="http://www.w3.org/2000/svg">
<rect width="231" height="221" fill="white"/>
<path d="M53.2877 98.859C55.2703 100.607 56.2616 102.998 56.2616 106.031C56.2616 109.065 55.2703 111.455 53.2877 113.204C51.3052 114.952 48.7176 115.826 45.525 115.826H43.787V123.923H37.8008V96.2369H45.525C48.7176 96.2369 51.3052 97.1109 53.2877 98.859ZM45.525 101.558H43.787V110.504H45.525C47.0698 110.504 48.2413 110.119 49.0395 109.347C49.8634 108.551 50.2753 107.445 50.2753 106.031C50.2753 104.617 49.8634 103.525 49.0395 102.754C48.2413 101.957 47.0698 101.558 45.525 101.558Z" fill="#9CA29E"/>
<path d="M73.5981 123.923V111.97H66.4919V123.923H60.5056V96.2369H66.4919V106.648H73.5981V96.2369H79.5843V123.923H73.5981Z" fill="#9CA29E"/>
<path d="M92.4369 103.525C90.8149 105.221 90.0038 107.407 90.0038 110.08C90.0038 112.754 90.8149 114.939 92.4369 116.635C94.059 118.332 96.1317 119.18 98.6549 119.18C101.178 119.18 103.251 118.332 104.873 116.635C106.495 114.939 107.306 112.754 107.306 110.08C107.306 107.407 106.495 105.221 104.873 103.525C103.251 101.828 101.178 100.98 98.6549 100.98C96.1317 100.98 94.059 101.828 92.4369 103.525ZM109.16 99.8616C111.915 102.638 113.292 106.044 113.292 110.08C113.292 114.116 111.915 117.535 109.16 120.337C106.431 123.113 102.929 124.502 98.6549 124.502C94.3808 124.502 90.8663 123.113 88.1114 120.337C85.3822 117.535 84.0176 114.116 84.0176 110.08C84.0176 106.044 85.3822 102.638 88.1114 99.8616C90.8663 97.0595 94.3808 95.6585 98.6549 95.6585C102.929 95.6585 106.431 97.0595 109.16 99.8616Z" fill="#9CA29E"/>
<path d="M117.72 123.923V96.2369H131.392V101.558H123.707V106.957H130.813V112.278H123.707V118.602H131.392V123.923H117.72Z" fill="#9CA29E"/>
<path d="M135.824 123.923V95.0801L149.573 110.042V96.2369H155.559V125.08L141.81 110.119V123.923H135.824Z" fill="#9CA29E"/>
<path d="M160.98 123.923V96.2369H166.966V123.923H160.98Z" fill="#9CA29E"/>
<path d="M176.503 96.2369L181.253 104.335L186.042 96.2369H192.415L184.42 109.733L192.801 123.923H186.351L181.215 115.209L176.039 123.923H169.667L178.009 109.81L170.053 96.2369H176.503Z" fill="#9CA29E"/>
</svg>
