<svg width="22" height="18" viewBox="0 0 22 18" fill="none" xmlns="http://www.w3.org/2000/svg">
<path fill-rule="evenodd" clip-rule="evenodd" d="M19.7477 4.4526C19.756 4.64643 19.7615 4.84026 19.7615 5.03684C19.7615 10.9988 15.2213 17.875 6.919 17.875C4.36975 17.875 1.99787 17.1285 0 15.8487C0.353375 15.89 0.71225 15.9106 1.07662 15.9106C3.19137 15.9106 5.137 15.1902 6.6825 13.9791C4.70662 13.9434 3.04012 12.6388 2.46537 10.8462C2.74175 10.8985 3.02362 10.926 3.31512 10.926C3.72625 10.926 4.125 10.871 4.5045 10.7679C2.43925 10.3541 0.884125 8.52991 0.884125 6.34416C0.884125 6.32492 0.884125 6.30567 0.884125 6.28642C1.49187 6.6246 2.189 6.82805 2.92875 6.85142C1.71738 6.04173 0.919875 4.66017 0.919875 3.09579C0.919875 2.26823 1.14262 1.49291 1.53175 0.826184C3.75787 3.5563 7.084 5.35301 10.835 5.54135C10.758 5.21142 10.7181 4.86638 10.7181 4.51308C10.7181 2.02078 12.7394 0 15.2309 0C16.5303 0 17.7031 0.548498 18.5254 1.42555C19.5539 1.22347 20.5205 0.848179 21.3923 0.331299C21.0554 1.38431 20.339 2.26823 19.4081 2.82772C20.3211 2.71775 21.1901 2.4758 22 2.11701C21.395 3.02155 20.6291 3.81612 19.7477 4.4526Z" fill="#888888"/>
</svg>
