<svg width="23" height="16" viewBox="0 0 23 16" fill="none" xmlns="http://www.w3.org/2000/svg">
<rect width="23" height="16" rx="3" fill="#888888"/>
<path fill-rule="evenodd" clip-rule="evenodd" d="M14.8811 7.82117C15.0283 7.89494 15.0283 8.10502 14.8811 8.17879L9.2896 10.9807C9.15661 11.0474 9 10.9507 9 10.8019V5.19802C9 5.04926 9.15661 4.95257 9.2896 5.01921L14.8811 7.82117Z" fill="white"/>
</svg>
